uid	domain_uid	name	autorank
TECH_COOR	TECH	Coordination	1
TECH_PREC	TECH	Précision	1
TECH_EQUI	TECH	Equilibre	2
STAM_MUSC	STAM	Endurance musculaire	1
STAM_CARD	STAM	Cardio	1
STAM_LUCI	STAM	Fatigue et lucidité	1
STRE_BENT	STRE	Force bras pliés	2
STRE_STRT	STRE	Force bras tendus	2
STRE_LEGS	STRE	Force jambes (squats)	2
MOBI_BACK	MOBI	Mobilité dos	1
MOBI_SHOU	MOBI	Mobilité épaules	1
MOBI_WRIS	MOBI	Mobilité poignets	1
MOBI_STRAD	MOBI	Mobilité hanches / straddle	1
MOBI_QUAD	MOBI	Mobilité quadriceps	2
MOBI_ANKL	MOBI	MObilité chevilles / mollets	1
MOBI_PIKE	MOBI	Mobilité Pike	1
MOME_BOOM	MOME	Explosivité	1
MOME_SPRI	MOME	Intensité maximale	1
